<?xml version="1.0" encoding="UTF-8" standalone="no"?>
<!-- Created with Inkscape (http://www.inkscape.org/) -->

<svg
   xmlns:dc="http://purl.org/dc/elements/1.1/"
   xmlns:cc="http://creativecommons.org/ns#"
   xmlns:rdf="http://www.w3.org/1999/02/22-rdf-syntax-ns#"
   xmlns:svg="http://www.w3.org/2000/svg"
   xmlns="http://www.w3.org/2000/svg"
   xmlns:sodipodi="http://sodipodi.sourceforge.net/DTD/sodipodi-0.dtd"
   xmlns:inkscape="http://www.inkscape.org/namespaces/inkscape"
   width="16px"
   height="16px"
   id="svg2826"
   version="1.1"
   inkscape:version="0.47 r22583"
   sodipodi:docname="calc_16x16.svg"
   inkscape:export-filename="/home/joaof/Bureau/calc_16x16.png"
   inkscape:export-xdpi="90"
   inkscape:export-ydpi="90">
  <defs
     id="defs2828">
    <inkscape:perspective
       sodipodi:type="inkscape:persp3d"
       inkscape:vp_x="0 : 8 : 1"
       inkscape:vp_y="0 : 1000 : 0"
       inkscape:vp_z="16 : 8 : 1"
       inkscape:persp3d-origin="8 : 5.3333333 : 1"
       id="perspective2834" />
    <inkscape:perspective
       id="perspective2844"
       inkscape:persp3d-origin="0.5 : 0.33333333 : 1"
       inkscape:vp_z="1 : 0.5 : 1"
       inkscape:vp_y="0 : 1000 : 0"
       inkscape:vp_x="0 : 0.5 : 1"
       sodipodi:type="inkscape:persp3d" />
    <inkscape:perspective
       id="perspective2960"
       inkscape:persp3d-origin="0.5 : 0.33333333 : 1"
       inkscape:vp_z="1 : 0.5 : 1"
       inkscape:vp_y="0 : 1000 : 0"
       inkscape:vp_x="0 : 0.5 : 1"
       sodipodi:type="inkscape:persp3d" />
    <inkscape:perspective
       id="perspective2960-7"
       inkscape:persp3d-origin="0.5 : 0.33333333 : 1"
       inkscape:vp_z="1 : 0.5 : 1"
       inkscape:vp_y="0 : 1000 : 0"
       inkscape:vp_x="0 : 0.5 : 1"
       sodipodi:type="inkscape:persp3d" />
  </defs>
  <sodipodi:namedview
     id="base"
     pagecolor="#ffffff"
     bordercolor="#666666"
     borderopacity="1.0"
     inkscape:pageopacity="0.0"
     inkscape:pageshadow="2"
     inkscape:zoom="22.197802"
     inkscape:cx="8"
     inkscape:cy="8"
     inkscape:current-layer="layer1"
     showgrid="true"
     inkscape:grid-bbox="true"
     inkscape:document-units="px"
     inkscape:window-width="1400"
     inkscape:window-height="975"
     inkscape:window-x="0"
     inkscape:window-y="25"
     inkscape:window-maximized="1" />
  <metadata
     id="metadata2831">
    <rdf:RDF>
      <cc:Work
         rdf:about="">
        <dc:format>image/svg+xml</dc:format>
        <dc:type
           rdf:resource="http://purl.org/dc/dcmitype/StillImage" />
        <dc:title></dc:title>
      </cc:Work>
    </rdf:RDF>
  </metadata>
  <g
     id="layer1"
     inkscape:label="Layer 1"
     inkscape:groupmode="layer">
    <rect
       style="fill:#000000;fill-opacity:1;stroke:#040402;stroke-width:0.23289134;stroke-miterlimit:4;stroke-opacity:1;stroke-dasharray:none"
       id="rect2812"
       width="15.768528"
       height="15.760565"
       x="0.17959739"
       y="0.14595538"
       inkscape:export-filename="/home/joaof/Données/Devel/Projets/paccman/src/main/paccman-calc/src/com/moonstice/paccman/calc/ui/resources/icons/calculator-icon.png"
       inkscape:export-xdpi="90"
       inkscape:export-ydpi="90" />
    <rect
       style="fill:#ffffff;fill-opacity:1;stroke:#040402;stroke-width:0.2429003;stroke-miterlimit:4;stroke-opacity:1;stroke-dasharray:none"
       id="rect2813"
       width="13.7571"
       height="2.7570996"
       x="1.1853113"
       y="0.90275753"
       inkscape:export-filename="/home/joaof/Données/Devel/Projets/paccman/src/main/paccman-calc/src/com/moonstice/paccman/calc/ui/resources/icons/calculator-icon.png"
       inkscape:export-xdpi="90"
       inkscape:export-ydpi="90" />
    <g
       id="g2947">
      <rect
         y="5.1147447"
         x="1.1147448"
         height="2.7705104"
         width="3.7705104"
         id="rect2815"
         style="fill:#ffffff;fill-opacity:1;stroke:#040402;stroke-width:0.22948965;stroke-miterlimit:4;stroke-opacity:1;stroke-dasharray:none" />
      <rect
         style="fill:#ffffff;fill-opacity:1;stroke:#040402;stroke-width:0.22948967;stroke-miterlimit:4;stroke-opacity:1;stroke-dasharray:none"
         id="rect3631"
         width="3.7705104"
         height="2.7705104"
         x="11.114745"
         y="5.1147447" />
      <rect
         y="5.1147447"
         x="6.1147447"
         height="2.7705104"
         width="3.7705104"
         id="rect3633"
         style="fill:#ffffff;fill-opacity:1;stroke:#040402;stroke-width:0.22948967;stroke-miterlimit:4;stroke-opacity:1;stroke-dasharray:none" />
    </g>
    <g
       transform="translate(4.4703484e-8,3.5000001)"
       id="g2947-0">
      <rect
         y="5.1147447"
         x="1.1147448"
         height="2.7705104"
         width="3.7705104"
         id="rect2815-5"
         style="fill:#ffffff;fill-opacity:1;stroke:#040402;stroke-width:0.22948965;stroke-miterlimit:4;stroke-opacity:1;stroke-dasharray:none" />
      <rect
         style="fill:#ffffff;fill-opacity:1;stroke:#040402;stroke-width:0.22948967;stroke-miterlimit:4;stroke-opacity:1;stroke-dasharray:none"
         id="rect3631-6"
         width="3.7705104"
         height="2.7705104"
         x="11.114745"
         y="5.1147447" />
      <rect
         y="5.1147447"
         x="6.1147447"
         height="2.7705104"
         width="3.7705104"
         id="rect3633-7"
         style="fill:#ffffff;fill-opacity:1;stroke:#040402;stroke-width:0.22948967;stroke-miterlimit:4;stroke-opacity:1;stroke-dasharray:none" />
    </g>
    <g
       transform="translate(4.4703484e-8,7.0000001)"
       id="g2947-4">
      <rect
         y="5.1147447"
         x="1.1147448"
         height="2.7705104"
         width="3.7705104"
         id="rect2815-0"
         style="fill:#ffffff;fill-opacity:1;stroke:#040402;stroke-width:0.22948965;stroke-miterlimit:4;stroke-opacity:1;stroke-dasharray:none" />
      <rect
         style="fill:#ffffff;fill-opacity:1;stroke:#040402;stroke-width:0.22948967;stroke-miterlimit:4;stroke-opacity:1;stroke-dasharray:none"
         id="rect3631-64"
         width="3.7705104"
         height="2.7705104"
         x="11.114745"
         y="5.1147447" />
      <rect
         y="5.1147447"
         x="6.1147447"
         height="2.7705104"
         width="3.7705104"
         id="rect3633-74"
         style="fill:#ffffff;fill-opacity:1;stroke:#040402;stroke-width:0.22948967;stroke-miterlimit:4;stroke-opacity:1;stroke-dasharray:none" />
    </g>
  </g>
</svg>
