<?xml version="1.0" encoding="UTF-8" standalone="no"?>
<!-- Created with Inkscape (http://www.inkscape.org/) -->

<svg
   xmlns:dc="http://purl.org/dc/elements/1.1/"
   xmlns:cc="http://creativecommons.org/ns#"
   xmlns:rdf="http://www.w3.org/1999/02/22-rdf-syntax-ns#"
   xmlns:svg="http://www.w3.org/2000/svg"
   xmlns="http://www.w3.org/2000/svg"
   xmlns:sodipodi="http://sodipodi.sourceforge.net/DTD/sodipodi-0.dtd"
   xmlns:inkscape="http://www.inkscape.org/namespaces/inkscape"
   width="210mm"
   height="297mm"
   id="svg2"
   version="1.1"
   inkscape:version="0.47pre4 r22446"
   sodipodi:docname="calculator-icon.svg"
   inkscape:export-filename="/home/joaof/Données/Devel/Projets/paccman/src/main/images/calculator-icon.png"
   inkscape:export-xdpi="90"
   inkscape:export-ydpi="90">
  <defs
     id="defs4">
    <inkscape:perspective
       sodipodi:type="inkscape:persp3d"
       inkscape:vp_x="0 : 526.18109 : 1"
       inkscape:vp_y="0 : 1000 : 0"
       inkscape:vp_z="744.09448 : 526.18109 : 1"
       inkscape:persp3d-origin="372.04724 : 350.78739 : 1"
       id="perspective10" />
  </defs>
  <sodipodi:namedview
     id="base"
     pagecolor="#ffffff"
     bordercolor="#666666"
     borderopacity="1.0"
     inkscape:pageopacity="0.0"
     inkscape:pageshadow="2"
     inkscape:zoom="0.98994949"
     inkscape:cx="56.316807"
     inkscape:cy="499.93455"
     inkscape:document-units="px"
     inkscape:current-layer="layer1"
     showgrid="false"
     inkscape:window-width="1400"
     inkscape:window-height="969"
     inkscape:window-x="0"
     inkscape:window-y="29"
     inkscape:window-maximized="1" />
  <metadata
     id="metadata7">
    <rdf:RDF>
      <cc:Work
         rdf:about="">
        <dc:format>image/svg+xml</dc:format>
        <dc:type
           rdf:resource="http://purl.org/dc/dcmitype/StillImage" />
        <dc:title></dc:title>
      </cc:Work>
    </rdf:RDF>
  </metadata>
  <g
     inkscape:label="Calque 1"
     inkscape:groupmode="layer"
     id="layer1">
    <rect
       style="fill:#000000;fill-opacity:1;stroke:#040402;stroke-width:3.59985876;stroke-miterlimit:4;stroke-opacity:1;stroke-dasharray:none"
       id="rect2812"
       width="237.44714"
       height="250.06923"
       x="193.71741"
       y="316.00339"
       inkscape:export-filename="/home/joaof/Données/Devel/Projets/paccman/src/main/paccman-calc/src/com/moonstice/paccman/calc/ui/resources/icons/calculator-icon.png"
       inkscape:export-xdpi="90"
       inkscape:export-ydpi="90" />
    <rect
       style="fill:#ffffff;fill-opacity:1;stroke:#040402;stroke-width:3.86745739;stroke-miterlimit:4;stroke-opacity:1;stroke-dasharray:none"
       id="rect2813"
       width="222.7686"
       height="43.163868"
       x="201.05667"
       y="328.53571"
       inkscape:export-filename="/home/joaof/Données/Devel/Projets/paccman/src/main/paccman-calc/src/com/moonstice/paccman/calc/ui/resources/icons/calculator-icon.png"
       inkscape:export-xdpi="90"
       inkscape:export-ydpi="90" />
    <g
       id="g3635"
       transform="translate(0.01886368,0)">
      <rect
         y="394.84805"
         x="200.99794"
         height="42.435722"
         width="65.730141"
         id="rect2815"
         style="fill:#ffffff;fill-opacity:1;stroke:#040402;stroke-width:3.74999976;stroke-miterlimit:4;stroke-opacity:1;stroke-dasharray:none" />
      <rect
         style="fill:#ffffff;fill-opacity:1;stroke:#040402;stroke-width:3.74999976;stroke-miterlimit:4;stroke-opacity:1;stroke-dasharray:none"
         id="rect3631"
         width="65.730141"
         height="42.435722"
         x="358.11615"
         y="394.84805" />
      <rect
         y="394.84805"
         x="279.55704"
         height="42.435722"
         width="65.730141"
         id="rect3633"
         style="fill:#ffffff;fill-opacity:1;stroke:#040402;stroke-width:3.74999976;stroke-miterlimit:4;stroke-opacity:1;stroke-dasharray:none" />
    </g>
    <g
       id="g3640"
       transform="translate(0.01886368,116.16754)">
      <rect
         style="fill:#ffffff;fill-opacity:1;stroke:#040402;stroke-width:3.74999976;stroke-miterlimit:4;stroke-opacity:1;stroke-dasharray:none"
         id="rect3642"
         width="65.730141"
         height="42.435722"
         x="200.99794"
         y="394.84805" />
      <rect
         y="394.84805"
         x="358.11615"
         height="42.435722"
         width="65.730141"
         id="rect3644"
         style="fill:#ffffff;fill-opacity:1;stroke:#040402;stroke-width:3.74999976;stroke-miterlimit:4;stroke-opacity:1;stroke-dasharray:none" />
      <rect
         style="fill:#ffffff;fill-opacity:1;stroke:#040402;stroke-width:3.74999976;stroke-miterlimit:4;stroke-opacity:1;stroke-dasharray:none"
         id="rect3646"
         width="65.730141"
         height="42.435722"
         x="279.55704"
         y="394.84805" />
    </g>
    <g
       id="g3648"
       transform="translate(0.01886368,57.578695)">
      <rect
         y="394.84805"
         x="200.99794"
         height="42.435722"
         width="65.730141"
         id="rect3650"
         style="fill:#ffffff;fill-opacity:1;stroke:#040402;stroke-width:3.74999976;stroke-miterlimit:4;stroke-opacity:1;stroke-dasharray:none" />
      <rect
         style="fill:#ffffff;fill-opacity:1;stroke:#040402;stroke-width:3.74999976;stroke-miterlimit:4;stroke-opacity:1;stroke-dasharray:none"
         id="rect3652"
         width="65.730141"
         height="42.435722"
         x="358.11615"
         y="394.84805" />
      <rect
         y="394.84805"
         x="279.55704"
         height="42.435722"
         width="65.730141"
         id="rect3654"
         style="fill:#ffffff;fill-opacity:1;stroke:#040402;stroke-width:3.74999976;stroke-miterlimit:4;stroke-opacity:1;stroke-dasharray:none" />
    </g>
  </g>
</svg>
